stat4arch – seminar4
…
summarise(sipky_sel, dlzka_prum = mean(Length),
          dlzka_sd = sd(Length),
          dlzka_min = min(Length),
          dlzka_max = max(Length),
          ks = n())

  dlzka_prum dlzka_sd dlzka_min dlzka_max ks
1   49.33077 12.73619      30.6     109.5 91

Grouping

group_by(sipky_sel, Name)

# A tibble: 91 × 5
# Groups:   Name [5]
   Name  Catalog Length Width Weight
   <fct> <chr>    <dbl> <dbl>  <dbl>
 1 Darl  41-0322   42.8  15.8    3.6
 2 Darl  35-2946   40.5  17.4    4.5
 3 Darl  35-2921   37.5  16.3    3.6
 4 Darl  36-3487   40.3  16.1    4  
 5 Darl  36-3321   30.6  17.1    2.3
 6 Darl  35-2959   41.8  16.8    3  
 7 Darl  35-2866   40.3  20.7    3.9
 8 Darl  41-0323   48.5  18.7    6.2
 9 Darl  35-2325   47.7  17.5    5.1
10 Darl  40-0847   33.6  15.8    2.8
# … with 81 more rows
…
